967 110
485 56
301 111
435 439
516 169
375 865
594 967
100 552
606 443
707 936
965 384
697 44
659 952
390 178
756 707
226 681
819 232
302 816
559 602
225 153
707 806
290 144
355 815
719 574
272 646
707 220
626 509
660 189
401 846
59 708
835 378
85 469
343 828
550 387
653 132
818 493
138 150
292 883
180 88
174 900
776 890
439 502
49 179
943 503
568 369
361 699
824 559
703 455
661 388
353 58
969 681
354 586
205 360
101 657
630 814
155 363
272 940
522 586
546 474
747 772
737 401
265 309
435 876
825 554
999 915
977 676
28 510
380 134
573 70
450 814
701 556
890 790
354 258
859 333
682 341
824 420
667 172
994 847
817 673
503 685
233 473
236 21
131 230
7 788
486 761
794 374
807 442
337 486
933 978
738 464
466 723
775 626
137 986
567 215
334 761
395 246
704 204
346 50
77 173
74 66
590 738
450 124
444 899
615 66
865 732
319 576
572 715
135 262
59 995
369 705
979 225
726 663
662 888
989 140
819 689
342 421
72 901
599 737
770 744
53 63
833 354
150 833
632 47
198 663
998 742
130 684
463 891
892 722
132 141
76 46
545 385
426 606
448 758
301 65
968 823
60 444
785 522
514 660
75 907
366 292
176 761
865 937
792 941
486 691
251 683
539 383
158 33
878 157
411 583
506 382
762 91
151 105
589 696
134 142
68 156
55 544
275 1
951 437
820 769
192 95
918 196
107 59
438 98
521 364
560 12
584 110
555 490
732 25
663 658
333 976
956 997
909 922
329 450
584 431
527 907
644 473
668 212
891 574
878 164
225 67
718 82
760 95
462 405
888 191
848 427
405 899
166 320
478 29
319 39
957 113
44 16
569 31
980 36
515 197
209 738
442 913
812 887
898 872
210 927
786 949
362812 635052
438450 52699
680101 859461
15972 258263
945660 478398
43659 311318
657099 594088
935908 221457
923063 201959
165349 475342
794950 74214
950209 195261
752107 47554
173235 175871
603698 290821
384591 204645
510525 918862
520681 986287
642835 474273
722861 486478
196517 346318
28027 942677
749359 704392
550020 134616
19605 851022
750236 152925
139383 370957
683351 746302
922406 157784
983099 230395
418811 991613
673594 132632
937688 191471
407299 628383
873821 705544
584770 474664
698614 789635
211661 699823
617004 702771
643266 606321
62221 1296
130368 821131
872885 412942
300367 592051
793797 72048
720293 42971
653441 417757
426736 632089
611098 704473
560355 26347
93652 76125
144316 189806
251555 955142
811413 960010
636956 73023
410964 126191
422385 306598
141960 280523
763908 88779
618374 940134
725140 135915
600485 429060
487120 542448
723307 714212
112900 335693
585520 649084
629625 60813
101109 528983
540016 347864
994741 296072
253650 249556
233976 557967
411574 385099
299155 794993
808309 648311
865256 336593
207968 994963
476527 630683
881476 749793
12749 451268
556085 597403
594863 359158
972771 248565
651470 176342
682094 59327
384591 796719
417513 289897
465653 691210
777377 498210
834218 824938
1951 573007
58843 580380
670241 110088
400960 656395
7128 774729
832755 446785
928077 536044
236745 340024
125677 892334
761308 976649
