315491 423687 449
951431 236745 525
283473 682609 509
537332 851146 525
351003 710050 509
879203 284859 525
492917 963446 525
797495 171009 509
54288 152474 375
998259 347923 525
220100 874106 525
698026 350034 509
123494 374186 443
968154 471682 525
568587 776001 509
864264 353939 525
932413 422816 525
395211 443989 449
427520 861139 525
708383 199809 509
882548 597716 525
812145 586797 509
577925 991153 525
752339 427051 509
997807 710984 525
673219 477614 509
960585 379512 525
280528 434049 449
624597 606997 447
91918 445391 449
401275 300275 441
895513 737773 525
945230 994489 458
45915 542720 470
304431 725773 509
67686 155285 375
795112 709225 468
543668 933179 525
962021 828642 525
270724 300576 389
55611 692860 509
634452 319024 509
539572 303546 470
465012 194811 449
645513 83352 509
959782 38008 525
996928 523188 525
813336 923973 525
401500 650354 509
466658 15135 449
367957 459482 449
668434 422141 509
165304 695811 509
406394 901821 525
625715 83214 470
143703 648514 509
377690 499017 449
935466 716703 525
230705 869318 525
745427 146260 509
907407 85481 525
20763 616471 470
956832 252417 525
279852 45096 443
964503 696857 525
447427 892029 525
389193 562400 470
573528 864300 525
424838 369020 449
831270 311885 509
233290 12218 443
623201 848652 525
894843 246802 525
746938 496147 509
400749 848639 525
18650 425002 449
712110 708537 380
911070 445538 525
968068 715092 525
509205 948134 525
210100 991534 525
846231 875824 432
222745 28902 386
722081 941079 525
929211 939022 445
836339 681504 504
769641 723783 468
735753 560365 509
627892 165319 509
204438 909388 525
515996 364603 470
419510 854010 525
582347 932063 525
826436 132366 509
743783 40306 509
122601 397987 443
397467 593588 470
106779 689765 509
282315 399387 441
470928 578837 470
260091 928525 525
452729 636988 509
453004 436680 400
319477 211100 443
59529 1392 340
765975 799891 468
462729 862962 525
521097 263123 470
41429 348030 443
754748 370787 509
634583 186665 509
43804 399032 443
672735 694929 442
632124 460603 509
372767 30314 443
876686 488229 525
574340 870063 525
508406 761897 509
904845 907552 445
144501 123193 375
284148 412494 449
4275 31995 308
95052 527197 470
832703 836483 388
578541 405842 470
53207 339057 443
419739 547892 470
288209 727142 509
337568 583447 470
16015 43084 324
403513 951767 525
203456 682778 509
806638 273441 509
412303 493099 444
656746 541864 509
35088 503942 449
888732 347909 525
635873 669929 442
216454 600696 470
515452 64289 470
54498 343414 443
664895 796252 504
69756 277293 443
301094 926646 525
267712 438025 449
285485 290003 389
378602 899439 525
811944 449093 509
198423 628705 509
274066 647413 509
196840 767263 509
212330 873010 525
190894 17020 383
583115 203193 470
499736 465801 426
84567 771430 509
304522 949623 525
25569 299441 443
199462 306846 443
348923 891980 525
400599 237621 441
183093 898316 525
1235 63509 340
131462 747468 509
363155 563258 470
830734 468480 509
605236 912344 525
83037 614389 470
293861 557338 470
776843 6566 509
713205 974415 525
604147 447054 470
740120 901970 525
750698 391304 509
743654 798569 468
365109 963046 525
432402 494737 444
849135 411937 525
167542 924042 525
545326 733413 509
988276 774294 525
669081 679199 385
926642 394038 525
977543 478381 525
9043 456121 449
156887 956739 525
591268 752662 509
426244 808870 509
474233 489395 413
842984 327753 525
935739 323586 525
255662 932909 525
787658 274871 509
370187 21441 443
184346 440985 449
688448 291444 509
251955 967207 525
127032 917406 525
974890 449512 525
686974 723762 504
678901 964715 525
375482 11540 443
468184 841428 525
695018 472628 509
58083 290312 443
367544 774712 509
878792 962970 507
900816 131331 525
195257 439190 449
621568 758813 509
153652 226506 386
671307 668943 336
702074 242866 509
732239 504950 509
237404 533040 470
105278 649961 509
463519 109413 449
912568 733506 525
781246 12457 509
409130 781501 509
362271 231317 441
956332 517861 525
339784 677411 509
900316 556891 525
837017 428668 509
872904 642107 525
194576 501962 449
886731 792044 525
461161 891966 525
423593 838092 525
924032 913807 445
724305 12496 509
679755 235899 509
169846 339317 443
838015 68678 525
33894 608211 470
286877 275941 389
387529 983258 525
93798 272254 443
463936 349067 449
239113 397906 441
241048 147927 443
686201 261590 509
971006 942349 458
185958 5881 383
934396 790807 525
798196 937182 525
243774 535511 470
283295 738619 509
360767 612823 470
939910 423842 525
396527 544784 470
236500 646031 509
530109 160757 470
64313 176733 383
429997 787841 509
77785 102352 341
218866 911533 525
885126 174613 525
353460 31423 443
527976 155254 470
980092 26107 525
490618 884188 525
776779 560684 509
762277 988128 525
61637 997585 525
274640 636004 509
354367 173889 443
639355 481546 509
