599 973 179
609 232 144
952 239 179
801 305 171
715 962 179
345 431 134
949 727 179
88 784 171
912 209 179
775 389 171
795 42 171
709 505 171
489 191 144
879 105 179
102 578 144
313 512 144
745 57 171
353 214 144
256 516 144
492 722 171
589 258 144
931 808 179
307 906 179
984 781 179
912 883 148
287 15 128
866 35 171
957 336 179
397 712 171
87 53 116
179 799 171
77 325 131
475 170 144
446 301 144
310 720 171
227 193 120
423 803 171
226 847 171
173 422 144
660 455 145
686 294 145
513 499 111
928 602 179
832 227 171
578 137 144
138 97 122
503 365 142
290 678 145
868 490 171
623 391 142
836 514 171
62 959 179
995 359 179
843 231 171
871 668 179
417 515 142
755 364 171
717 291 171
189 85 125
915 112 179
89 774 171
714 843 153
458 476 129
774 10 171
652 114 145
715 196 171
228 99 125
699 151 145
106 336 144
301 184 128
118 366 144
976 450 179
975 157 179
160 344 144
743 978 179
340 609 142
840 145 171
562 239 144
806 766 153
595 938 179
205 941 179
662 621 145
565 821 171
891 290 179
835 569 171
802 335 171
750 846 153
862 262 171
677 670 114
226 90 125
66 251 128
724 445 171
54 977 179
541 81 144
906 193 179
535 516 124
554 335 142
178 891 179
671 558 145
476 436 129
433 434 28
934 230 179
953 136 179
274 302 118
42 541 144
385 306 144
687 29 145
581 79 144
101 373 144
344 598 142
854 264 171
133 107 122
555 604 119
172 686 145
138 693 145
968 701 179
648 339 142
435 791 171
394 32 144
750 463 171
287 984 179
649 414 145
783 505 171
33 135 122
382 132 144
580 91 144
497 840 171
914 127 179
224 957 179
546 76 144
131 107 122
436 49 144
141 413 144
58 661 145
786 421 171
273 849 171
652 735 171
455 294 144
63 662 145
332 541 142
210 599 144
766 569 171
385 63 144
662 237 145
213 319 131
387 743 171
81 699 145
162 473 144
408 617 142
586 253 144
912 336 179
987 331 179
874 240 179
58 929 179
446 347 134
416 266 144
107 296 128
810 185 171
527 157 144
578 476 142
733 287 171
656 134 145
318 65 131
226 390 144
474 817 171
169 449 144
772 773 122
730 598 171
503 759 171
288 212 128
133 28 122
267 73 128
62 592 144
395 844 171
466 724 171
231 191 128
823 644 171
452 897 179
632 979 179
496 86 144
198 447 144
257 132 128
793 257 171
515 664 145
861 107 171
900 259 179
462 989 179
201 129 125
820 765 153
374 627 142
164 716 171
765 509 171
812 940 179
356 641 142
233 234 84
598 498 137
379 575 142
975 55 179
413 78 144
52 722 171
91 198 125
441 975 179
734 141 171
523 973 179
654 91 145
69 501 144
248 222 128
570 222 144
161 148 99
75 823 171
242 21 128
154 837 171
629 756 171
557 445 142
146 246 128
419 85 144
293 118 128
543 238 144
331 690 145
164 742 171
471 431 129
990 87 179
298 435 144
947 271 179
12 894 179
407 436 134
544 745 171
891 26 179
790 471 171
777 38 171
464 777 171
582 762 171
785 283 171
635 461 142
95 690 145
455 116 144
64 52 113
725 328 171
581 912 179
546 425 142
755 836 153
796 553 171
191 584 144
449 937 179
318 280 131
805 450 171
81 521 144
182 512 144
188 930 179
131 609 144
1 1 1
2 2 2
