251980 613760 470
86026 109258 354
101617 69609 351
529201 234344 470
180485 873137 525
392993 462224 449
523134 397181 470
179705 282796 443
6305 713326 509
916176 627941 525
99032 375604 443
71983 50950 340
158748 993093 525
181006 128149 383
298684 968713 525
602384 158144 470
410549 317126 449
891069 215668 525
884822 269464 525
638728 337493 509
113327 778918 509
866120 644389 525
828429 429520 509
931040 188235 525
672405 899030 525
718318 925696 525
973559 498216 525
375211 73734 443
959399 689268 525
619733 31629 470
954894 39373 525
358937 371772 410
162396 544127 470
617150 595332 447
751935 473275 509
652656 575016 509
461727 226091 449
767080 46200 509
109247 663184 509
770399 757916 468
518984 562178 452
159077 543772 470
800438 93059 509
618959 255132 470
387253 599346 470
375346 927140 525
393934 821773 509
818873 520571 509
516710 324636 470
919363 329798 525
207289 687403 509
295353 785601 509
335481 567686 470
791899 197325 509
430581 838191 525
878532 425020 525
957703 407420 525
342200 328661 366
305567 888568 525
308919 816149 509
91691 792146 509
832824 572979 509
188710 753730 509
590016 696598 509
972397 7760 525
207349 774193 509
912286 504971 525
901928 68199 525
714543 780543 468
343643 66201 443
508573 923190 525
758614 941770 525
327118 700871 509
319468 191165 443
577955 233793 470
875361 316942 525
965696 361142 525
327025 984871 525
659414 497598 509
39635 315195 443
964281 851322 507
678009 771967 504
249744 535696 470
240326 463706 449
312974 838886 525
469763 857338 525
899634 209207 525
11333 146707 375
597648 360716 470
257487 30060 443
454420 236423 449
551338 472235 470
820906 714980 468
997602 395821 525
135236 56848 354
455185 168328 449
708996 124606 509
62668 259911 443
219542 178635 386
824644 497583 509
946755 210186 525
288130 490149 449
493421 326093 449
574433 592041 434
698123 507015 509
970477 910392 507
279529 583994 470
531580 588406 452
905417 574379 525
378891 80006 443
45759 878058 525
458930 308105 449
2932 783378 509
844863 386870 525
78835 901005 525
270693 902567 525
925143 473923 525
40579 5717 324
929311 255535 525
922555 682200 525
77571 815819 509
450232 80093 449
883541 91979 525
83096 584685 470
211811 383615 443
762845 174646 509
608347 170054 470
996455 361502 525
482841 415604 444
114690 893598 525
937085 623615 525
344432 143543 443
896328 354834 525
44095 525134 470
444943 276691 449
335516 532185 470
890592 11630 525
838319 275383 525
420741 547567 470
83116 439855 449
918109 101369 525
306704 515406 470
597192 592009 372
947995 330900 525
973097 664448 525
548878 590688 434
346870 568094 470
33089 586204 470
736035 518556 509
792651 49053 509
657509 650601 429
365507 423015 449
14511 151286 375
538149 617387 452
5527 353912 443
152213 3009 375
279035 557177 470
941004 720137 525
890645 931338 476
595611 715068 509
392405 664091 509
663582 286612 509
500603 733558 509
429671 237768 449
180512 701474 509
323621 599874 470
842179 889202 445
102249 620850 470
593014 282880 470
780473 418418 509
815345 731288 468
400015 394766 374
455326 287592 449
171570 75559 383
955247 137579 525
894731 131131 525
544884 685425 509
526493 281966 470
884576 613032 525
770919 589791 509
966415 342968 525
832615 179927 509
558753 465666 470
937103 753277 525
368236 979036 525
931614 165649 525
53634 407294 443
489947 745512 509
727086 692711 504
734900 110700 509
765754 470531 509
279664 237251 407
794105 6178 509
78606 487585 449
757200 344284 509
741555 779384 468
410723 797594 509
364315 810232 509
417735 738450 509
40720 272554 443
429580 839794 525
790996 658372 504
934052 881874 476
819110 73011 509
284582 307466 389
694523 994745 525
535338 4530 470
947999 680425 525
250908 424048 449
245786 143126 443
118355 517439 470
185474 453547 449
794988 723048 468
478553 978384 525
176234 245905 443
742474 770840 468
801936 592302 509
639607 259231 509
158071 812163 509
99731 881883 525
708776 845621 525
691088 411583 509
502390 300918 449
263697 31988 443
361182 151066 443
471379 338305 449
872413 311684 525
31657 935638 525
289170 49274 443
493779 222303 449
720260 771425 468
193620 977830 525
644350 466898 509
719491 347925 509
717851 296816 509
394915 657016 509
796156 148845 509
156695 546250 470
751328 214954 509
92168 140172 354
68184 615666 470
359081 309708 441
781790 10762 509
392551 169623 443
303268 595941 470
539914 929290 525
411776 205854 449
252895 67564 443
762734 990447 525
848946 627988 525
356699 846922 525
332447 229383 443
248608 604896 470
130676 913731 525
67106 600700 470
135421 387802 443
420402 656208 509
76882 705730 509
202604 664697 509
573400 642076 509
671826 334927 509
370743 99332 443
570956 41875 470
495896 984178 525
638816 196309 509
527150 64439 470
556237 722070 509
850776 245973 525
194598 87585 383
534439 809222 509
522044 738229 509
192346 825631 509
403813 731695 509
358331 599547 470
321411 173999 443
586024 240663 470
757501 562679 509
946497 902799 507
556112 158998 470
539629 203556 470
575147 754253 509
789975 129049 509
989017 154246 525
237461 830394 509
299430 765788 509
193786 444832 449
355161 765964 509
282909 428116 449
439881 601869 470
