533656 56636 470
682088 899882 525
169355 403997 443
516653 74061 470
675225 795939 504
921443 55206 525
24433 747681 509
501337 832464 509
898270 397997 525
949897 626780 525
598001 107272 470
579725 227616 470
184171 301877 443
900596 875920 445
963299 627612 525
721882 852589 525
613862 72740 470
764902 978707 525
330027 151759 443
227938 914574 525
694885 898029 525
260918 50575 443
734026 370774 509
176507 870214 525
89797 291744 443
146101 788812 509
629669 465028 509
736675 221693 509
269479 998975 525
392470 901346 525
290197 803394 509
988612 151420 525
176527 30300 383
570916 656020 509
480818 428710 444
504277 494159 426
563931 909683 525
559800 171799 470
985148 119043 525
515407 794994 509
385960 443914 449
656715 942787 525
774724 615954 509
748858 122630 509
130028 875048 525
411707 351277 449
889756 369436 525
429587 741645 509
478842 592659 470
363116 775535 509
48922 855984 525
262572 211703 443
379390 971276 525
598559 579638 434
452262 269134 449
9082 238104 443
241336 514308 470
862738 841533 419
39748 325539 443
272949 986660 525
759337 514818 509
35754 812455 509
46796 227342 386
236289 917648 525
343993 380354 441
439668 480941 444
459734 898708 525
271838 895023 525
726800 885684 525
189612 798136 509
243918 237382 368
74506 841406 525
815432 894702 525
512401 846986 525
352655 938919 525
34763 394092 443
954384 986910 458
704936 751634 424
373348 322966 441
84539 505023 449
426513 814186 509
817953 133443 509
612737 66718 470
623852 793504 509
648568 370716 509
35270 152921 375
224788 748617 509
343239 412594 449
987089 256703 525
957046 263805 525
60868 398455 443
783215 953123 525
286040 498976 449
500656 804323 509
366290 702612 509
571432 804409 509
36864 488402 449
98389 608343 470
886865 105914 525
716203 214414 509
806834 18353 509
590548 331028 470
554383 857084 525
826047 193053 509
580428 893878 525
190144 213449 373
494181 8981 449
181676 284352 443
490938 558972 470
893268 5787 525
121223 264643 443
87238 443112 449
886696 17463 525
567117 753756 509
338237 702463 509
648365 155268 509
596877 64838 470
784376 919374 525
93638 832174 509
528266 599921 452
715944 479636 509
968767 304676 525
186069 951642 525
573561 710111 509
317789 837512 509
617197 587246 447
850047 99165 525
405322 509645 449
466046 668633 509
211709 436772 449
201662 121616 383
505912 459714 444
80041 311444 443
269375 557215 470
670435 793614 504
769586 136631 509
798193 185182 509
749579 41046 509
732586 646853 504
306494 170390 443
818372 711601 468
66494 758114 509
735946 323012 509
473298 496224 426
407914 250334 441
378431 303018 441
116732 713591 509
816539 191814 509
52659 112755 354
797889 891534 525
878374 728047 525
85479 205995 383
145019 393968 443
38537 638675 509
584779 101160 470
174345 389514 443
402647 707494 509
681909 40565 509
910952 750483 525
320626 852587 525
777639 536647 509
285394 302872 389
254142 865687 525
18271 743219 509
138065 618980 470
175042 568204 470
520718 517755 439
978302 667602 525
949082 97472 525
951994 216010 525
951406 103271 525
394982 755366 509
511047 958852 525
460539 330673 449
193632 84283 383
216460 244060 443
225178 360601 443
909512 948500 507
10133 217126 386
420734 277321 449
634616 165177 509
166293 197380 365
716048 91181 509
6840 736876 509
292311 601850 470
928546 901744 476
826643 449201 509
79463 104945 341
278352 778070 509
14614 181964 383
617443 699512 509
233456 43502 443
521058 317598 470
424295 206283 449
699708 211351 509
353174 925962 525
239038 990075 525
860233 396441 525
267985 511915 449
392908 655883 509
450172 200007 449
117462 335339 443
650740 678814 442
771275 512664 509
417849 857738 525
775405 445030 509
517820 307873 470
422483 308064 449
588064 470072 470
429311 417403 418
165222 726370 509
123099 897047 525
988171 514337 525
733307 222389 509
826196 358139 509
824412 108378 509
501366 279490 449
741325 731208 424
197085 367275 443
745685 422704 509
267814 119789 443
159285 345800 443
219264 928344 525
736994 320691 509
128468 911615 525
345556 934784 525
789996 325821 509
268846 115927 443
776015 549194 509
137467 526835 470
247702 948981 525
502729 755152 509
825608 965999 525
