1679 2893
4518 8912
3752 5086
6225 9367
2083 5102
7463 9568
2921 8976
5429 7018
6135 8827
4479 7162
3198 4935
8056 9126
6754 8062
4812 8327
1346 5469
3690 7925
5241 8301
6187 8042
7138 8274
1234 6345
4421 8982
987 7823
6783 7431
1985 4510
2593 8661
1937 4829
6781 8917
2199 5624
5703 9863
7928 8967
3482 6539
5542 8378
7250 9995
6147 9475
2281 9035
3186 4278
3597 7465
2571 9426
2048 9678
6741 9184
2142 6772
2895 5974
4629 9572
3115 6853
7889 8965
2871 8887
7496 9635
1257 3527
4648 7573
4856 7999
1801 3209
6746 8971
5457 7215
1214 3672
3561 9511
7932 8542
7973 9921
5811 8369
5292 6837
8135 9945
4235 8789
5426 7328
6726 9845
4059 8607
2322 3639
7621 8806
7849 9727
4579 9048
6697 8969
1106 4203
4937 9724
2471 5319
6946 9912
2472 4959
2116 5947
4064 8576
2617 5951
5135 5794
4640 8065
5641 7154
6782 8135
2869 3182
6799 9541
3286 9532
4516 8445
4864 7357
4473 9492
4803 7154
4166 9042
7927 8550
1294 5715
3221 5789
7555 8500
1115 5904
3265 3779
6930 7801
6429 9286
3525 6482
5411 8101
5460 8150
7521 9541
7121 7897
2580 4876
3655 4803
6230 9205
5457 9852
3188 6630
4473 6494
5235 9387
2374 8555
1101 4040
4326 7133
4655 9078
7681 9016
4810 5971
4672 8096
6185 6687
6375 7380
4297 7233
1099 8192
6162 7425
3626 4645
3431 8480
3173 4069
2823 4745
2911 6094
1562 8462
2606 4959
1455 8260
6373 8579
3294 5731
4511 8500
7170 7644
2886 9481
4295 9789
5769 9109
4702 6805
2771 7731
1889 9850
1549 2639
5935 8495
1584 8753
3655 7524
6229 7954
5059 5755
3319 6761
7649 9914
3693 6281
1332 4442
5792 9471
5797 8065
5429 8852
2141 3602
2056 7004
5130 7216
1935 8081
7329 8459
4713 9937
3199 6322
5126 8602
5561 7154
4711 9530
2722 9921
4309 9467
4157 6537
2272 8051
1894 9260
7543 8593
3103 5113
3314 7725
1445 6460
5797 8905
1984 5001
2625 6560
1327 5261
2620 8067
3249 7451
6802 7742
2102 5801
6990 7156
2525 7637
2976 9650
3684 5080
7456 9666
1159 2759
7437 7865
3756 6782
7359 8575
6177 7996
1344 3816
6333 9364
2567 9802
2804 8899
5789 8913
3442 7731
1619 2919
6296 9620
7581 8679
6536 7087
7314 9631
2707 8920
6767 9823
6334 8664
3529 9271
2400 7831
1911 7880
1592 3302
6115 9255
1176 4610
1624 2968
4901 5500
3624 7324
6149 6836
4754 8545
5520 9209
3786 9567
2144 4115
5046 8523
2254 8131
2859 4073
7602 9205
1016 4164
6790 7905
3801 8839
4980 9993
6134 9985
4890 6145
3082 9657
5465 7451
2629 4452
5704 8425
7039 9620
2841 7467
5397 9940
6070 7493
6256 7057
5752 6679
2982 3850
5227 6006
1110 7252
6699 7423
4826 8746
2775 6467
3290 5976
3594 6802
7122 8583
4516 6829
2866 9453
5387 9525
2860 4096
2554 4834
1465 4866
