1832 4542 238
1778 1082 182
487 294 144
4780 3580 238
4704 377 238
4758 627 238
2504 1392 209
4366 3197 238
450 4476 238
4830 3118 238
2809 58 209
2268 1241 183
1161 3009 217
578 944 179
937 1013 174
257 3032 217
799 4719 238
3768 2291 238
3755 946 238
1983 1304 180
447 3525 217
756 972 179
1024 330 179
4428 323 238
4870 408 238
889 208 179
2087 4908 238
3774 1410 238
1683 3259 217
3499 2103 217
3699 1279 217
4226 285 238
1975 875 182
4487 121 238
2350 4115 238
1666 4448 238
2341 4631 238
3388 4519 238
4081 4691 215
1652 2452 183
3068 3455 199
4568 4396 184
2025 2185 170
1169 31 182
2721 2461 209
2157 205 182
812 181 171
3905 3560 238
56 2671 209
3878 3179 238
2586 349 209
4636 707 238
2905 3671 217
3251 4750 238
2682 3091 217
2557 4576 238
4197 3051 238
2289 505 183
522 3975 238
3939 961 238
1398 1498 172
3674 4177 238
3766 2262 238
2018 1243 180
3761 870 238
2423 3531 217
3539 336 217
4207 4575 215
2693 231 209
1237 3506 217
1021 1929 182
1187 2538 209
2202 2407 183
3802 565 238
3143 4033 238
9 3792 238
3874 2931 238
3311 3306 168
4753 3700 238
4501 2629 238
4970 4537 210
4114 284 238
2061 1092 182
1158 2871 209
2532 1280 209
2292 1431 183
2333 4500 238
4302 4754 215
1997 1580 180
2458 2092 183
4861 2793 238
1539 712 182
953 1408 182
2937 3376 199
1049 4382 238
19 3845 238
3780 389 238
3927 3607 238
580 2127 182
2963 1314 217
3615 1185 217
1731 3692 217
2737 3044 217
311 3005 217
957 1535 182
1332 1902 180
2681 4429 238
636 4042 238
1620 3227 217
2497 2105 209
3923 976 238
3697 4426 238
4191 988 238
1758 2839 209
3545 904 217
591 3221 217
4047 3321 238
3431 3079 199
2899 1111 209
2451 2180 183
3147 3285 199
2302 4571 238
2843 4274 238
3934 4699 215
18 1164 182
4155 4801 215
4522 3244 238
1301 4374 238
372 3776 238
1058 2288 183
1732 1035 182
2578 4167 238
1261 2870 209
246 3110 217
1933 2170 175
4098 3193 238
3582 671 217
3511 1551 217
4736 1238 238
4985 7 238
2700 1 209
4762 1660 238
2758 1476 209
2125 297 182
3856 2446 238
4769 2122 238
1326 3740 238
3141 2683 217
4076 2084 238
455 290 144
1050 459 179
2277 2712 209
4997 797 238
383 1242 182
1756 4241 238
3928 2626 238
2967 1742 217
55 4071 238
822 2499 209
655 2296 183
3102 3532 199
4062 4521 215
61 1518 182
1281 1588 177
4200 3578 238
4225 4971 215
4502 3925 215
452 3084 217
3960 725 238
1658 1597 167
4538 2045 238
622 1202 182
4987 1673 238
2110 310 182
1154 1672 182
2879 3696 217
2569 4438 238
2776 3859 238
4617 2645 238
2016 2718 209
1364 4523 238
1749 3471 217
4381 4171 215
4939 2456 238
1788 2 182
3169 3119 168
3421 2566 217
2162 2791 209
252 2669 209
3043 36 217
637 2166 182
2382 473 183
1932 3897 238
4140 4732 215
3572 2304 217
3670 3188 194
4 4960 238
1047 710 179
1564 2456 183
2833 635 209
